2021-04-11T16:43:53+00:00 INFO Regenerating images for attachment ID: 119
2021-04-11T16:43:54+00:00 INFO Regenerating images for attachment ID: 117
2021-04-11T16:43:55+00:00 INFO Regenerating images for attachment ID: 115
2021-04-11T16:43:56+00:00 INFO Regenerating images for attachment ID: 113
2021-04-11T16:43:57+00:00 INFO Regenerating images for attachment ID: 111
2021-04-11T16:43:59+00:00 INFO Regenerating images for attachment ID: 109
2021-04-11T16:44:00+00:00 INFO Regenerating images for attachment ID: 107
2021-04-11T16:44:01+00:00 INFO Regenerating images for attachment ID: 105
2021-04-11T16:44:02+00:00 INFO Regenerating images for attachment ID: 103
2021-04-11T16:44:03+00:00 INFO Regenerating images for attachment ID: 101
2021-04-11T16:44:04+00:00 INFO Regenerating images for attachment ID: 99
2021-04-11T16:44:05+00:00 INFO Regenerating images for attachment ID: 97
2021-04-11T16:44:06+00:00 INFO Regenerating images for attachment ID: 95
2021-04-11T16:44:07+00:00 INFO Regenerating images for attachment ID: 93
2021-04-11T16:44:07+00:00 INFO Regenerating images for attachment ID: 91
2021-04-11T16:44:08+00:00 INFO Regenerating images for attachment ID: 89
2021-04-11T16:44:09+00:00 INFO Regenerating images for attachment ID: 87
2021-04-11T16:44:10+00:00 INFO Regenerating images for attachment ID: 85
2021-04-11T16:44:12+00:00 INFO Regenerating images for attachment ID: 83
2021-04-11T16:44:13+00:00 INFO Regenerating images for attachment ID: 81
2021-04-11T16:44:14+00:00 INFO Regenerating images for attachment ID: 80
2021-04-11T16:44:15+00:00 INFO Regenerating images for attachment ID: 77
2021-04-11T16:44:16+00:00 INFO Regenerating images for attachment ID: 74
2021-04-11T16:44:17+00:00 INFO Regenerating images for attachment ID: 72
2021-04-11T16:44:18+00:00 INFO Regenerating images for attachment ID: 39
2021-04-11T16:44:18+00:00 INFO Completed product image regeneration job.
